{
  "spec_dir": "spec",
  "spec_files": [
    "**/*[sS]pec.js"
  ],
  "helpers": [
    "helpers/**/*.js"
  ],
  "stopSpecOnExpectationFailure": false,
  "random": false,
  "jasmine.DEFAULT_TIMEOUT_INTERVAL": 5940000,
  "defaultTimeoutInterval": 5940000
}
